{
  "count": 3484,
  "page": 1,
  "page_count": 10,
  "page_size": 10,
  "products": [
    {
      "image_front_thumb_url": "https://images.openfoodfacts.org/images/products/20083786/front_en.27.100.jpg",
      "nutriments": {
        "calcium": 0,
        "calcium_100g": 0,
        "calcium_serving": 0,
        "calcium_unit": "mg",
        "calcium_value": 0,
        "carbohydrates": 77.78,
        "carbohydrates_100g": 77.78,
        "carbohydrates_serving": 14,
        "carbohydrates_unit": "g",
        "carbohydrates_value": 77.78,
        "cholesterol": 0,
        "cholesterol_100g": 0,
        "cholesterol_serving": 0,
        "cholesterol_unit": "mg",
        "cholesterol_value": 0,
        "energy": 1628,
        "energy-kcal": 389,
        "energy-kcal_100g": 389,
        "energy-kcal_serving": 70,
        "energy-kcal_unit": "kcal",
        "energy-kcal_value": 389,
        "energy-kcal_value_computed": 369.58,
        "energy_100g": 1628,
        "energy_serving": 293,
        "energy_unit": "kcal",
        "energy_value": 389,
        "fat": 2.78,
        "fat_100g": 2.78,
        "fat_serving": 0.5,
        "fat_unit": "g",
        "fat_value": 2.78,
        "fiber": 5.6,
        "fiber_100g": 5.6,
        "fiber_serving": 1.01,
        "fiber_unit": "g",
        "fiber_value": 5.6,
        "folates": 0.311111,
        "folates_100g": 0.311111,
        "folates_serving": 0.056,
        "folates_unit": "µg",
        "folates_value": 311111,
        "fruits-vegetables-nuts-estimate-from-ingredients_100g": 0,
        "fruits-vegetables-nuts-estimate-from-ingredients_serving": 0,
        "iron": 0,
        "iron_100g": 0,
        "iron_serving": 0,
        "iron_unit": "mg",
        "iron_value": 0,
        "monounsaturated-fat": 0,
        "monounsaturated-fat_100g": 0,
        "monounsaturated-fat_serving": 0,
        "monounsaturated-fat_unit": "g",
        "monounsaturated-fat_value": 0,
        "pantothenic-acid": 0.003333,
        "pantothenic-acid_100g": 0.003333,
        "pantothenic-acid_serving": 0.0006,
        "pantothenic-acid_unit": "mg",
        "pantothenic-acid_value": 3.333,
        "polyunsaturated-fat": 0,
        "polyunsaturated-fat_100g": 0,
        "polyunsaturated-fat_serving": 0,
        "polyunsaturated-fat_unit": "g",
        "polyunsaturated-fat_value": 0,
        "potassium": 1.056,
        "potassium_100g": 1.056,
        "potassium_serving": 0.19,
        "potassium_unit": "mg",
        "potassium_value": 1056,
        "proteins": 5.56,
        "proteins_100g": 5.56,
        "proteins_serving": 1,
        "proteins_unit": "g",
        "proteins_value": 5.56,
        "salt": 0.35,
        "salt_100g": 0.35,
        "salt_serving": 0.063,
        "salt_unit": "g",
        "salt_value": 0.35,
        "saturated-fat": 0,
        "saturated-fat_100g": 0,
        "saturated-fat_serving": 0,
        "saturated-fat_unit": "g",
        "saturated-fat_value": 0,
        "sodium": 0.14,
        "sodium_100g": 0.14,
        "sodium_serving": 0.0252,
        "sodium_unit": "g",
        "sodium_value": 0.14,
        "sugars": 77.78,
        "sugars_100g": 77.78,
        "sugars_serving": 14,
        "sugars_unit": "g",
        "sugars_value": 77.78,
        "vitamin-b1": 1.111,
        "vitamin-b1_100g": 1.111,
        "vitamin-b1_serving": 0.2,
        "vitamin-b1_unit": "mg",
        "vitamin-b1_value": 1111,
        "vitamin-b6": 0.001111,
        "vitamin-b6_100g": 0.001111,
        "vitamin-b6_serving": 0.0002,
        "vitamin-b6_unit": "mg",
        "vitamin-b6_value": 1.111,
        "vitamin-c": 0.0778,
        "vitamin-c_100g": 0.0778,
        "vitamin-c_serving": 0.014,
        "vitamin-c_unit": "mg",
        "vitamin-c_value": 77.8,
        "vitamin-pp": 0.016667,
        "vitamin-pp_100g": 0.016667,
        "vitamin-pp_serving": 0.003,
        "vitamin-pp_unit": "mg",
        "vitamin-pp_value": 16.667
      }
    },
    {
      "nutriments": {
        "calcium": 0.1,
        "calcium_100g": 0.1,
        "calcium_serving": 0.03,
        "calcium_unit": "mg",
        "calcium_value": 100,
        "carbohydrates": 73.33,
        "carbohydrates_100g": 73.33,
        "carbohydrates_serving": 22,
        "carbohydrates_unit": "g",
        "carbohydrates_value": 73.33,
        "cholesterol": 0,
        "cholesterol_100g": 0,
        "cholesterol_serving": 0,
        "cholesterol_unit": "mg",
        "cholesterol_value": 0,
        "energy": 1536,
        "energy-kcal": 367,
        "energy-kcal_100g": 367,
        "energy-kcal_serving": 110,
        "energy-kcal_unit": "kcal",
        "energy-kcal_value": 367,
        "energy-kcal_value_computed": 386.63,
        "energy_100g": 1536,
        "energy_serving": 461,
        "energy_unit": "kcal",
        "energy_value": 367,
        "fat": 6.67,
        "fat_100g": 6.67,
        "fat_serving": 2,
        "fat_unit": "g",
        "fat_value": 6.67,
        "fiber": 3.3,
        "fiber_100g": 3.3,
        "fiber_serving": 0.99,
        "fiber_unit": "g",
        "fiber_value": 3.3,
        "fruits-vegetables-nuts-estimate-from-ingredients_100g": 0,
        "fruits-vegetables-nuts-estimate-from-ingredients_serving": 0,
        "iron": 0.00367,
        "iron_100g": 0.00367,
        "iron_serving": 0.0011,
        "iron_unit": "mg",
        "iron_value": 3.67,
        "monounsaturated-fat": 0,
        "monounsaturated-fat_100g": 0,
        "monounsaturated-fat_serving": 0,
        "monounsaturated-fat_unit": "g",
        "monounsaturated-fat_value": 0,
        "nova-group": 4,
        "nova-group_100g": 4,
        "nova-group_serving": 4,
        "polyunsaturated-fat": 0,
        "polyunsaturated-fat_100g": 0,
        "polyunsaturated-fat_serving": 0,
        "polyunsaturated-fat_unit": "g",
        "polyunsaturated-fat_value": 0,
        "proteins": 6.67,
        "proteins_100g": 6.67,
        "proteins_serving": 2,
        "proteins_unit": "g",
        "proteins_value": 6.67,
        "salt": 1.5,
        "salt_100g": 1.5,
        "salt_serving": 0.45,
        "salt_unit": "mg",
        "salt_value": 1500,
        "saturated-fat": 6.67,
        "saturated-fat_100g": 6.67,
        "saturated-fat_serving": 2,
        "saturated-fat_unit": "g",
        "saturated-fat_value": 6.67,
        "sodium": 0.6,
        "sodium_100g": 0.6,
        "sodium_serving": 0.18,
        "sodium_unit": "mg",
        "sodium_value": 600,
        "sugars": 70,
        "sugars_100g": 70,
        "sugars_serving": 21,
        "sugars_unit": "g",
        "sugars_value": 70,
        "trans-fat": 0,
        "trans-fat_100g": 0,
        "trans-fat_serving": 0,
        "trans-fat_unit": "g",
        "trans-fat_value": 0
      },
      "product_name": "Smooth and creamy chocolate instant cappuccino coffee beverage mix, chocolate"
    },
    {
      "image_front_thumb_url": "https://images.openfoodfacts.org/images/products/20224578/front_en.52.100.jpg",
      "nutriments": {
        "carbohydrates": 24,
        "carbohydrates_100g": 24,
        "carbohydrates_serving": 79.2,
        "carbohydrates_unit": "g",
        "carbohydrates_value": 24,
        "energy": 609,
        "energy-kcal": 144,
        "energy-kcal_100g": 144,
        "energy-kcal_serving": 475,
        "energy-kcal_unit": "kcal",
        "energy-kcal_value": 144,
        "energy-kcal_value_computed": 142.4,
        "energy-kj": 609,
        "energy-kj_100g": 609,
        "energy-kj_serving": 2010,
        "energy-kj_unit": "kJ",
        "energy-kj_value": 609,
        "energy-kj_value_computed": 601.2,
        "energy_100g": 609,
        "energy_serving": 2010,
        "energy_unit": "kJ",
        "energy_value": 609,
        "fat": 3.2,
        "fat_100g": 3.2,
        "fat_serving": 10.6,
        "fat_unit": "g",
        "fat_value": 3.2,
        "fiber_modifier": "-",
        "fruits-vegetables-nuts-estimate-from-ingredients_100g": 0,
        "fruits-vegetables-nuts-estimate-from-ingredients_serving": 0,
        "nova-group": 4,
        "nova-group_100g": 4,
        "nova-group_serving": 4,
        "proteins": 4.4,
        "proteins_100g": 4.4,
        "proteins_serving": 14.5,
        "proteins_unit": "g",
        "proteins_value": 4.4,
        "salt": 0.95,
        "salt_100g": 0.95,
        "salt_serving": 3.13,
        "salt_unit": "g",
        "salt_value": 0.95,
        "saturated-fat": 0.9,
        "saturated-fat_100g": 0.9,
        "saturated-fat_serving": 2.97,
        "saturated-fat_unit": "g",
        "saturated-fat_value": 0.9,
        "sodium": 0.38,
        "sodium_100g": 0.38,
        "sodium_serving": 1.25,
        "sodium_unit": "g",
        "sodium_value": 0.38,
        "sugars": 3.6,
        "sugars_100g": 3.6,
        "sugars_serving": 11.9,
        "sugars_unit": "g",
        "sugars_value": 3.6
      },
      "product_name": "Thai Noodles Satay sauce"
    },
    {
      "image_front_thumb_url": "https://images.openfoodfacts.org/images/products/871/120/036/5524/front_de.61.100.jpg",
      "nutriments": {
        "carbohydrates": 0.6,
        "carbohydrates_100g": 0.6,
        "carbohydrates_serving": 0.9,
        "carbohydrates_unit": "g",
        "carbohydrates_value": 0.6,
        "carbon-footprint-from-known-ingredients_100g": 5.25,
        "carbon-footprint-from-known-ingredients_product": 6.3,
        "carbon-footprint-from-known-ingredients_serving": 7.88,
        "energy": 15,
        "energy-kcal": 4,
        "energy-kcal_100g": 4,
        "energy-kcal_serving": 6,
        "energy-kcal_unit": "kcal",
        "energy-kcal_value": 4,
        "energy-kcal_value_computed": 9.9,
        "energy-kj": 15,
        "energy-kj_100g": 15,
        "energy-kj_serving": 22.5,
        "energy-kj_unit": "kJ",
        "energy-kj_value": 15,
        "energy-kj_value_computed": 41.2,
        "energy_100g": 15,
        "energy_serving": 22.5,
        "energy_unit": "kJ",
        "energy_value": 15,
        "fat": 0.5,
        "fat_100g": 0.5,
        "fat_modifier": "<",
        "fat_serving": 0.75,
        "fat_unit": "g",
        "fat_value": 0.5,
        "fiber": 0.5,
        "fiber_100g": 0.5,
        "fiber_modifier": "<",
        "fiber_serving": 0.75,
        "fiber_unit": "g",
        "fiber_value": 0.5,
        "fruits-vegetables-nuts-estimate-from-ingredients_100g": 14.5,
        "fruits-vegetables-nuts-estimate-from-ingredients_serving": 14.5,
        "nova-group": 4,
        "nova-group_100g": 4,
        "nova-group_serving": 4,
        "proteins": 0.5,
        "proteins_100g": 0.5,
        "proteins_modifier": "<",
        "proteins_serving": 0.75,
        "proteins_unit": "g",
        "proteins_value": 0.5,
        "saturated-fat": 0.1,
        "saturated-fat_100g": 0.1,
        "saturated-fat_modifier": "<",
        "saturated-fat_serving": 0.15,
        "saturated-fat_unit": "g",
        "saturated-fat_value": 0.1,
        "sugars": 0.5,
        "sugars_100g": 0.5,
        "sugars_modifier": "<",
        "sugars_serving": 0.75,
        "sugars_unit": "g",
        "sugars_value": 0.5
      },
      "product_name": "Gemüse Bouillon"
    },
    {
      "image_front_thumb_url": "https://images.openfoodfacts.org/images/products/490/110/485/0033/front_fr.18.100.jpg",
      "nutriments": {
        "carbohydrates": 57.8,
        "carbohydrates_100g": 57.8,
        "carbohydrates_unit": "g",
        "carbohydrates_value": 57.8,
        "energy": 1958,
        "energy-kcal": 468,
        "energy-kcal_100g": 468,
        "energy-kcal_unit": "kcal",
        "energy-kcal_value": 468,
        "energy-kcal_value_computed": 468,
        "energy_100g": 1958,
        "energy_unit": "kcal",
        "energy_value": 468,
        "fat": 21.6,
        "fat_100g": 21.6,
        "fat_unit": "g",
        "fat_value": 21.6,
        "fruits-vegetables-nuts-estimate-from-ingredients_100g": 0,
        "fruits-vegetables-nuts-estimate-from-ingredients_serving": 0,
        "nova-group": 4,
        "nova-group_100g": 4,
        "nova-group_serving": 4,
        "proteins": 10.6,
        "proteins_100g": 10.6,
        "proteins_unit": "g",
        "proteins_value": 10.6,
        "salt": 5.59,
        "salt_100g": 5.59,
        "salt_unit": "g",
        "salt_value": 5.59,
        "saturated-fat": 9.9,
        "saturated-fat_100g": 9.9,
        "saturated-fat_unit": "g",
        "saturated-fat_value": 9.9,
        "sodium": 2.236,
        "sodium_100g": 2.236,
        "sodium_unit": "g",
        "sodium_value": 2.236,
        "sugars": 2.42,
        "sugars_100g": 2.42,
        "sugars_unit": "g",
        "sugars_value": 2.42
      },
      "product_name": "All-In-One Ramen - Nouilles Japonnaises"
    },
    {
      "image_front_thumb_url": "https://images.openfoodfacts.org/images/products/007/066/201/0037/front_en.52.100.jpg",
      "nutriments": {
        "calcium": 0,
        "calcium_100g": 0,
        "calcium_serving": 0,
        "calcium_unit": "mg",
        "calcium_value": 0,
        "carbohydrates": 61.9,
        "carbohydrates_100g": 61.9,
        "carbohydrates_serving": 26,
        "carbohydrates_unit": "g",
        "carbohydrates_value": 61.9,
        "cholesterol": 0,
        "cholesterol_100g": 0,
        "cholesterol_serving": 0,
        "cholesterol_unit": "mg",
        "cholesterol_value": 0,
        "energy": 1891,
        "energy-kcal": 452,
        "energy-kcal_100g": 452,
        "energy-kcal_serving": 190,
        "energy-kcal_unit": "kcal",
        "energy-kcal_value": 452,
        "energy-kcal_value_computed": 454.83,
        "energy_100g": 1891,
        "energy_serving": 794,
        "energy_unit": "kcal",
        "energy_value": 452,
        "fat": 16.67,
        "fat_100g": 16.67,
        "fat_serving": 7,
        "fat_unit": "g",
        "fat_value": 16.67,
        "fiber": 4.8,
        "fiber_100g": 4.8,
        "fiber_serving": 2.02,
        "fiber_unit": "g",
        "fiber_value": 4.8,
        "fruits-vegetables-nuts-estimate-from-ingredients_100g": 0,
        "fruits-vegetables-nuts-estimate-from-ingredients_serving": 0,
        "iron": 0.00429,
        "iron_100g": 0.00429,
        "iron_serving": 0.0018,
        "iron_unit": "mg",
        "iron_value": 4.29,
        "monounsaturated-fat": 7.14,
        "monounsaturated-fat_100g": 7.14,
        "monounsaturated-fat_serving": 3,
        "monounsaturated-fat_unit": "g",
        "monounsaturated-fat_value": 7.14,
        "nova-group": 4,
        "nova-group_100g": 4,
        "nova-group_serving": 4,
        "polyunsaturated-fat": 0,
        "polyunsaturated-fat_100g": 0,
        "polyunsaturated-fat_serving": 0,
        "polyunsaturated-fat_unit": "g",
        "polyunsaturated-fat_value": 0,
        "proteins": 11.9,
        "proteins_100g": 11.9,
        "proteins_serving": 5,
        "proteins_unit": "g",
        "proteins_value": 11.9,
        "salt": 5.4175,
        "salt_100g": 5.4175,
        "salt_serving": 2.28,
        "salt_unit": "mg",
        "salt_value": 5417.5,
        "saturated-fat": 8.33,
        "saturated-fat_100g": 8.33,
        "saturated-fat_serving": 3.5,
        "saturated-fat_unit": "g",
        "saturated-fat_value": 8.33,
        "sodium": 2.167,
        "sodium_100g": 2.167,
        "sodium_serving": 0.91,
        "sodium_unit": "mg",
        "sodium_value": 2167,
        "sugars": 2.38,
        "sugars_100g": 2.38,
        "sugars_serving": 1,
        "sugars_unit": "g",
        "sugars_value": 2.38,
        "trans-fat": 0,
        "trans-fat_100g": 0,
        "trans-fat_serving": 0,
        "trans-fat_unit": "g",
        "trans-fat_value": 0,
        "vitamin-a": 0,
        "vitamin-a_100g": 0,
        "vitamin-a_serving": 0,
        "vitamin-a_unit": "IU",
        "vitamin-a_value": 0,
        "vitamin-c": 0,
        "vitamin-c_100g": 0,
        "vitamin-c_serving": 0,
        "vitamin-c_unit": "mg",
        "vitamin-c_value": 0
      },
      "product_name": "Nissin, top ramen, ramen noodle soup, chicken"
    },
    {
      "image_front_thumb_url": "https://images.openfoodfacts.org/images/products/480/777/027/1229/front_en.15.100.jpg",
      "nutriments": {
        "calcium": 0,
        "calcium_100g": 0,
        "calcium_serving": 0,
        "calcium_unit": "mg",
        "calcium_value": 0,
        "carbohydrates": 56,
        "carbohydrates_100g": 56,
        "carbohydrates_serving": 33.6,
        "carbohydrates_unit": "g",
        "carbohydrates_value": 56,
        "cholesterol": 0,
        "cholesterol_100g": 0,
        "cholesterol_serving": 0,
        "cholesterol_unit": "mg",
        "cholesterol_value": 0,
        "energy": 2008,
        "energy-kcal": 480,
        "energy-kcal_100g": 480,
        "energy-kcal_serving": 288,
        "energy-kcal_unit": "kcal",
        "energy-kcal_value": 480,
        "energy-kcal_value_computed": 475,
        "energy_100g": 2008,
        "energy_serving": 1200,
        "energy_unit": "kcal",
        "energy_value": 480,
        "fat": 23,
        "fat_100g": 23,
        "fat_serving": 13.8,
        "fat_unit": "g",
        "fat_value": 23,
        "fiber": 0,
        "fiber_100g": 0,
        "fiber_serving": 0,
        "fiber_unit": "g",
        "fiber_value": 0,
        "fruits-vegetables-nuts-estimate-from-ingredients_100g": 0,
        "fruits-vegetables-nuts-estimate-from-ingredients_serving": 0,
        "iron": 0.0012,
        "iron_100g": 0.0012,
        "iron_serving": 0.00072,
        "iron_unit": "mg",
        "iron_value": 1.2,
        "nova-group": 4,
        "nova-group_100g": 4,
        "nova-group_serving": 4,
        "proteins": 11,
        "proteins_100g": 11,
        "proteins_serving": 6.6,
        "proteins_unit": "g",
        "proteins_value": 11,
        "salt": 1.3,
        "salt_100g": 1.3,
        "salt_serving": 0.78,
        "salt_unit": "g",
        "salt_value": 1.3,
        "saturated-fat": 10,
        "saturated-fat_100g": 10,
        "saturated-fat_serving": 6,
        "saturated-fat_unit": "g",
        "saturated-fat_value": 10,
        "sodium": 0.52,
        "sodium_100g": 0.52,
        "sodium_serving": 0.312,
        "sodium_unit": "g",
        "sodium_value": 0.52,
        "sugars": 5,
        "sugars_100g": 5,
        "sugars_serving": 3,
        "sugars_unit": "g",
        "sugars_value": 5,
        "trans-fat": 0,
        "trans-fat_100g": 0,
        "trans-fat_serving": 0,
        "trans-fat_unit": "g",
        "trans-fat_value": 0,
        "vitamin-a": 0,
        "vitamin-a_100g": 0,
        "vitamin-a_serving": 0,
        "vitamin-a_unit": "IU",
        "vitamin-a_value": 0,
        "vitamin-c": 0,
        "vitamin-c_100g": 0,
        "vitamin-c_serving": 0,
        "vitamin-c_unit": "mg",
        "vitamin-c_value": 0
      },
      "product_name": "Me! Extra Hot Chili Noodles"
    },
    {
      "image_front_thumb_url": "https://images.openfoodfacts.org/images/products/885/010/000/2488/front_en.22.100.jpg",
      "nutriments": {
        "calcium": 0.02,
        "calcium_100g": 0.02,
        "calcium_label": "0",
        "calcium_serving": 0.012,
        "calcium_unit": "% DV",
        "calcium_value": 2,
        "carbohydrates": 12,
        "carbohydrates_100g": 12,
        "carbohydrates_serving": 7.2,
        "carbohydrates_unit": "g",
        "carbohydrates_value": 12,
        "carbon-footprint-from-known-ingredients_100g": 495.27,
        "carbon-footprint-from-known-ingredients_product": 297,
        "carbon-footprint-from-known-ingredients_serving": 297,
        "cholesterol": 0,
        "cholesterol_100g": 0,
        "cholesterol_label": "0",
        "cholesterol_serving": 0,
        "cholesterol_unit": "mg",
        "cholesterol_value": 0,
        "energy": 364,
        "energy-kcal": 87,
        "energy-kcal_100g": 87,
        "energy-kcal_serving": 52.2,
        "energy-kcal_unit": "kcal",
        "energy-kcal_value": 87,
        "energy-kcal_value_computed": 96.2,
        "energy_100g": 364,
        "energy_serving": 218,
        "energy_unit": "kcal",
        "energy_value": 87,
        "fat": 3.4,
        "fat_100g": 3.4,
        "fat_serving": 2.04,
        "fat_unit": "g",
        "fat_value": 3.4,
        "fiber": 5,
        "fiber_100g": 5,
        "fiber_serving": 3,
        "fiber_unit": "g",
        "fiber_value": 5,
        "fruits-vegetables-nuts-estimate-from-ingredients_100g": 6.6,
        "fruits-vegetables-nuts-estimate-from-ingredients_serving": 6.6,
        "iron": 0.00072,
        "iron_100g": 0.00072,
        "iron_label": "0",
        "iron_serving": 0.000432,
        "iron_unit": "% DV",
        "iron_value": 4,
        "nova-group": 3,
        "nova-group_100g": 3,
        "nova-group_serving": 3,
        "proteins": 1.9,
        "proteins_100g": 1.9,
        "proteins_serving": 1.14,
        "proteins_unit": "g",
        "proteins_value": 1.9,
        "salt": 1.1,
        "salt_100g": 1.1,
        "salt_serving": 0.66,
        "salt_unit": "g",
        "salt_value": 1.1,
        "saturated-fat": 1.6,
        "saturated-fat_100g": 1.6,
        "saturated-fat_serving": 0.96,
        "saturated-fat_unit": "g",
        "saturated-fat_value": 1.6,
        "sodium": 0.44,
        "sodium_100g": 0.44,
        "sodium_serving": 0.264,
        "sodium_unit": "g",
        "sodium_value": 0.44,
        "sugars": 0.6,
        "sugars_100g": 0.6,
        "sugars_serving": 0.36,
        "sugars_unit": "g",
        "sugars_value": 0.6,
        "trans-fat": 0,
        "trans-fat_100g": 0,
        "trans-fat_label": "0",
        "trans-fat_serving": 0,
        "trans-fat_unit": "g",
        "trans-fat_value": 0,
        "vitamin-a": 0,
        "vitamin-a_100g": 0,
        "vitamin-a_label": "0",
        "vitamin-a_serving": 0,
        "vitamin-a_unit": "% DV",
        "vitamin-a_value": 0,
        "vitamin-c": 0,
        "vitamin-c_100g": 0,
        "vitamin-c_label": "0",
        "vitamin-c_serving": 0,
        "vitamin-c_unit": "% DV",
        "vitamin-c_value": 0
      },
      "product_name": "Instant Noodles Casserole Beef Flavour"
    },
    {
      "image_front_thumb_url": "https://images.openfoodfacts.org/images/products/002/800/029/9781/front_en.5.100.jpg",
      "nutriments": {
        "calcium": 0.5,
        "calcium_100g": 2.5,
        "calcium_serving": 0.5,
        "calcium_unit": "mg",
        "calcium_value": 500,
        "carbohydrates": 17,
        "carbohydrates_100g": 85,
        "carbohydrates_serving": 17,
        "carbohydrates_unit": "g",
        "carbohydrates_value": 17,
        "cholesterol": 0,
        "cholesterol_100g": 0,
        "cholesterol_serving": 0,
        "cholesterol_unit": "mg",
        "cholesterol_value": 0,
        "energy": 335,
        "energy-kcal": 80,
        "energy-kcal_100g": 400,
        "energy-kcal_serving": 80,
        "energy-kcal_unit": "kcal",
        "energy-kcal_value": 80,
        "energy-kcal_value_computed": 83,
        "energy_100g": 1680,
        "energy_serving": 335,
        "energy_unit": "kcal",
        "energy_value": 80,
        "fat": 1,
        "fat_100g": 5,
        "fat_serving": 1,
        "fat_unit": "g",
        "fat_value": 1,
        "fiber": 1,
        "fiber_100g": 5,
        "fiber_serving": 1,
        "fiber_unit": "g",
        "fiber_value": 1,
        "fruits-vegetables-nuts-estimate-from-ingredients_100g": 0,
        "fruits-vegetables-nuts-estimate-from-ingredients_serving": 0,
        "iron": 0.0018,
        "iron_100g": 0.009,
        "iron_serving": 0.0018,
        "iron_unit": "mg",
        "iron_value": 1.8,
        "nova-group": 4,
        "nova-group_100g": 4,
        "nova-group_serving": 4,
        "proteins": 1,
        "proteins_100g": 5,
        "proteins_serving": 1,
        "proteins_unit": "g",
        "proteins_value": 1,
        "salt": 0,
        "salt_100g": 0,
        "salt_serving": 0,
        "salt_unit": "g",
        "salt_value": 0,
        "saturated-fat": 0.5,
        "saturated-fat_100g": 2.5,
        "saturated-fat_serving": 0.5,
        "saturated-fat_unit": "g",
        "saturated-fat_value": 0.5,
        "sodium": 0,
        "sodium_100g": 0,
        "sodium_serving": 0,
        "sodium_unit": "g",
        "sodium_value": 0,
        "sugars": 15,
        "sugars_100g": 75,
        "sugars_serving": 15,
        "sugars_unit": "g",
        "sugars_value": 15,
        "trans-fat": 0,
        "trans-fat_100g": 0,
        "trans-fat_serving": 0,
        "trans-fat_unit": "g",
        "trans-fat_value": 0,
        "vitamin-a": 0,
        "vitamin-a_100g": 0,
        "vitamin-a_serving": 0,
        "vitamin-a_unit": "IU",
        "vitamin-a_value": 0,
        "vitamin-c": 0,
        "vitamin-c_100g": 0,
        "vitamin-c_serving": 0,
        "vitamin-c_unit": "mg",
        "vitamin-c_value": 0
      },
      "product_name": "Nestle granulated hot chocolate drink mix"
    },
    {
      "image_front_thumb_url": "https://images.openfoodfacts.org/images/products/008/968/614/0743/front_en.3.100.jpg",
      "nutriments": {
        "alpha-linolenic-acid": 0,
        "alpha-linolenic-acid_100g": 0,
        "alpha-linolenic-acid_serving": 0,
        "alpha-linolenic-acid_unit": "% DV",
        "alpha-linolenic-acid_value": 0,
        "arachidic-acid": 0,
        "arachidic-acid_100g": 0,
        "arachidic-acid_serving": 0,
        "arachidic-acid_unit": "mg",
        "arachidic-acid_value": 0,
        "arachidonic-acid": 8,
        "arachidonic-acid_100g": 8,
        "arachidonic-acid_serving": 3.2,
        "arachidonic-acid_unit": "% DV",
        "arachidonic-acid_value": 8,
        "calcium": 0,
        "calcium_100g": 0,
        "calcium_serving": 0,
        "calcium_unit": "% DV",
        "calcium_value": 0,
        "carbohydrates": 28.8,
        "carbohydrates_100g": 28.8,
        "carbohydrates_serving": 11.5,
        "carbohydrates_unit": "g",
        "carbohydrates_value": 28.8,
        "carbon-footprint-from-known-ingredients_100g": 79.2,
        "carbon-footprint-from-known-ingredients_product": 63.4,
        "carbon-footprint-from-known-ingredients_serving": 31.7,
        "cholesterol": 0,
        "cholesterol_100g": 0,
        "cholesterol_serving": 0,
        "cholesterol_unit": "mg",
        "cholesterol_value": 0,
        "energy": 962,
        "energy-from-fat": 251,
        "energy-from-fat_100g": 251,
        "energy-from-fat_serving": 100,
        "energy-from-fat_unit": "kcal",
        "energy-from-fat_value": 60,
        "energy-kcal": 230,
        "energy-kcal_100g": 230,
        "energy-kcal_serving": 92,
        "energy-kcal_unit": "kcal",
        "energy-kcal_value": 230,
        "energy-kcal_value_computed": 226.1,
        "energy_100g": 962,
        "energy_serving": 385,
        "energy_unit": "kcal",
        "energy_value": 230,
        "fat": 10.1,
        "fat_100g": 10.1,
        "fat_serving": 4.04,
        "fat_unit": "g",
        "fat_value": 10.1,
        "fiber": 1,
        "fiber_100g": 1,
        "fiber_serving": 0.4,
        "fiber_unit": "g",
        "fiber_value": 1,
        "fruits-vegetables-nuts-estimate-from-ingredients_100g": 0,
        "fruits-vegetables-nuts-estimate-from-ingredients_serving": 0,
        "iron": 0.00144,
        "iron_100g": 0.00144,
        "iron_label": "0",
        "iron_serving": 0.000576,
        "iron_unit": "% DV",
        "iron_value": 8,
        "nova-group": 4,
        "nova-group_100g": 4,
        "nova-group_serving": 4,
        "proteins": 4.5,
        "proteins_100g": 4.5,
        "proteins_serving": 1.8,
        "proteins_unit": "g",
        "proteins_value": 4.5,
        "salt": 0.4,
        "salt_100g": 0.4,
        "salt_serving": 0.16,
        "salt_unit": "g",
        "salt_value": 0.4,
        "saturated-fat": 4,
        "saturated-fat_100g": 4,
        "saturated-fat_serving": 1.6,
        "saturated-fat_unit": "g",
        "saturated-fat_value": 4,
        "sodium": 0.16,
        "sodium_100g": 0.16,
        "sodium_serving": 0.064,
        "sodium_unit": "g",
        "sodium_value": 0.16,
        "sugars": 5.4,
        "sugars_100g": 5.4,
        "sugars_serving": 2.16,
        "sugars_unit": "g",
        "sugars_value": 5.4,
        "trans-fat": 0,
        "trans-fat_100g": 0,
        "trans-fat_serving": 0,
        "trans-fat_unit": "g",
        "trans-fat_value": 0,
        "vitamin-a": 6e-05,
        "vitamin-a_100g": 6e-05,
        "vitamin-a_label": "0",
        "vitamin-a_serving": 2.4e-05,
        "vitamin-a_unit": "% DV",
        "vitamin-a_value": 4,
        "vitamin-c": 0,
        "vitamin-c_100g": 0,
        "vitamin-c_serving": 0,
        "vitamin-c_unit": "% DV",
        "vitamin-c_value": 0
      },
      "product_name": "Instant noodles migoreng satay flavour"
    }
  ],
  "skip": 0
}